EESchema Schematic File Version 4
LIBS:fölinäyttö-cache
EELAYER 26 0
EELAYER END
$Descr A4 11693 8268
encoding utf-8
Sheet 1 1
Title ""
Date ""
Rev ""
Comp ""
Comment1 ""
Comment2 ""
Comment3 ""
Comment4 ""
$EndDescr
NoConn ~ 7000 4550
NoConn ~ 7100 4550
NoConn ~ 7200 4550
NoConn ~ 7300 4550
$Comp
L power:GND #PWR0101
U 1 1 5BABACD8
P 7950 4550
F 0 "#PWR0101" H 7950 4300 50  0001 C CNN
F 1 "GND" H 7955 4377 50  0000 C CNN
F 2 "" H 7950 4550 50  0001 C CNN
F 3 "" H 7950 4550 50  0001 C CNN
	1    7950 4550
	1    0    0    -1  
$EndComp
Wire Wire Line
	7500 4550 7500 4500
Wire Wire Line
	7500 4500 7950 4500
Wire Wire Line
	7950 4500 7950 4550
$Comp
L power:GND #PWR0104
U 1 1 5BABB8C4
P 6200 5050
F 0 "#PWR0104" H 6200 4800 50  0001 C CNN
F 1 "GND" H 6205 4877 50  0000 C CNN
F 2 "" H 6200 5050 50  0001 C CNN
F 3 "" H 6200 5050 50  0001 C CNN
	1    6200 5050
	1    0    0    -1  
$EndComp
Wire Wire Line
	6200 4950 6400 4950
Wire Wire Line
	6200 4950 6200 5050
$Comp
L power:+5V #PWR0105
U 1 1 5BABBCD7
P 8300 4800
F 0 "#PWR0105" H 8300 4650 50  0001 C CNN
F 1 "+5V" H 8315 4973 50  0000 C CNN
F 2 "" H 8300 4800 50  0001 C CNN
F 3 "" H 8300 4800 50  0001 C CNN
	1    8300 4800
	1    0    0    -1  
$EndComp
Wire Wire Line
	7800 4950 8300 4950
Wire Wire Line
	8300 4950 8300 4800
Wire Wire Line
	7300 5350 7300 5700
$Comp
L power:GND #PWR0106
U 1 1 5BABC382
P 6750 5700
F 0 "#PWR0106" H 6750 5450 50  0001 C CNN
F 1 "GND" H 6755 5527 50  0000 C CNN
F 2 "" H 6750 5700 50  0001 C CNN
F 3 "" H 6750 5700 50  0001 C CNN
	1    6750 5700
	1    0    0    -1  
$EndComp
$Comp
L power:+5V #PWR0107
U 1 1 5BABC3B4
P 7850 5700
F 0 "#PWR0107" H 7850 5550 50  0001 C CNN
F 1 "+5V" H 7865 5873 50  0000 C CNN
F 2 "" H 7850 5700 50  0001 C CNN
F 3 "" H 7850 5700 50  0001 C CNN
	1    7850 5700
	1    0    0    -1  
$EndComp
Wire Wire Line
	6750 5700 7000 5700
Wire Wire Line
	7600 5700 7850 5700
$Comp
L RC2004A:RC2004A Display1
U 1 1 5BABFAEF
P 7100 4950
F 0 "Display1" V 7054 5691 50  0000 L CNN
F 1 "RC2004A" V 7145 5691 50  0000 L CNN
F 2 "Connector_PinHeader_2.54mm:PinHeader_1x16_P2.54mm_Vertical" H 7200 4150 50  0001 C CNN
F 3 "http://www.raystar-optronics.com/down.php?ProID=18" H 7200 4850 50  0001 C CNN
	1    7100 4950
	0    1    1    0   
$EndComp
NoConn ~ 6800 5350
NoConn ~ 6900 5350
$Comp
L RF_Module:ESP-12E ESP1
U 1 1 5BACAA3A
P 5150 3750
F 0 "ESP1" H 5150 4950 50  0000 C CNN
F 1 "ESP-12E" H 5150 4850 50  0000 C CNN
F 2 "RF_Module:ESP-12E" H 5150 3750 50  0001 C CNN
F 3 "http://wiki.ai-thinker.com/_media/esp8266/esp8266_series_modules_user_manual_v1.1.pdf" H 4800 3850 50  0001 C CNN
	1    5150 3750
	1    0    0    -1  
$EndComp
$Comp
L power:GND #PWR0102
U 1 1 5BACABF6
P 5150 4450
F 0 "#PWR0102" H 5150 4200 50  0001 C CNN
F 1 "GND" H 5155 4277 50  0000 C CNN
F 2 "" H 5150 4450 50  0001 C CNN
F 3 "" H 5150 4450 50  0001 C CNN
	1    5150 4450
	1    0    0    -1  
$EndComp
$Comp
L power:+3.3V #PWR0103
U 1 1 5BACAC28
P 5150 2950
F 0 "#PWR0103" H 5150 2800 50  0001 C CNN
F 1 "+3.3V" H 5165 3123 50  0000 C CNN
F 2 "" H 5150 2950 50  0001 C CNN
F 3 "" H 5150 2950 50  0001 C CNN
	1    5150 2950
	1    0    0    -1  
$EndComp
$Comp
L Connector:USB_B_Micro J1
U 1 1 5BACB243
P 3800 5350
F 0 "J1" H 3855 5817 50  0000 C CNN
F 1 "USB_B_Micro" H 3855 5726 50  0000 C CNN
F 2 "Connector_USB:USB_Micro-B_Molex-105017-0001" H 3950 5300 50  0001 C CNN
F 3 "~" H 3950 5300 50  0001 C CNN
	1    3800 5350
	1    0    0    -1  
$EndComp
$Comp
L power:GND #PWR0108
U 1 1 5BACB3C0
P 3800 5750
F 0 "#PWR0108" H 3800 5500 50  0001 C CNN
F 1 "GND" H 3805 5577 50  0000 C CNN
F 2 "" H 3800 5750 50  0001 C CNN
F 3 "" H 3800 5750 50  0001 C CNN
	1    3800 5750
	1    0    0    -1  
$EndComp
$Comp
L power:+5V #PWR0109
U 1 1 5BACB86D
P 4250 5150
F 0 "#PWR0109" H 4250 5000 50  0001 C CNN
F 1 "+5V" H 4265 5323 50  0000 C CNN
F 2 "" H 4250 5150 50  0001 C CNN
F 3 "" H 4250 5150 50  0001 C CNN
	1    4250 5150
	1    0    0    -1  
$EndComp
Wire Wire Line
	4100 5150 4250 5150
$Comp
L Connector_Generic:Conn_01x06 Serial_header1
U 1 1 5BACC34D
P 8150 3350
F 0 "Serial_header1" H 8230 3342 50  0000 L CNN
F 1 "Conn_01x06" H 8230 3251 50  0000 L CNN
F 2 "Connector_PinHeader_2.54mm:PinHeader_1x06_P2.54mm_Horizontal" H 8150 3350 50  0001 C CNN
F 3 "~" H 8150 3350 50  0001 C CNN
	1    8150 3350
	1    0    0    -1  
$EndComp
Wire Wire Line
	7950 3450 5750 3450
Wire Wire Line
	7000 3550 7000 3250
Wire Wire Line
	7000 3250 5750 3250
Wire Wire Line
	7000 3550 7950 3550
Wire Wire Line
	7950 3650 7750 3650
Wire Wire Line
	7750 3650 7750 3000
Wire Wire Line
	7750 3000 4550 3000
Wire Wire Line
	4550 3000 4550 3150
$Comp
L power:GND #PWR0110
U 1 1 5BACDC6E
P 7850 3750
F 0 "#PWR0110" H 7850 3500 50  0001 C CNN
F 1 "GND" H 7855 3577 50  0000 C CNN
F 2 "" H 7850 3750 50  0001 C CNN
F 3 "" H 7850 3750 50  0001 C CNN
	1    7850 3750
	1    0    0    -1  
$EndComp
Wire Wire Line
	7950 3150 7850 3150
Wire Wire Line
	7850 3150 7850 3750
Wire Wire Line
	5750 4150 6900 4150
Wire Wire Line
	6900 4150 6900 4550
Wire Wire Line
	5750 3950 6800 3950
Wire Wire Line
	6800 3950 6800 4550
Wire Wire Line
	5750 3750 6700 3750
Wire Wire Line
	6700 3750 6700 4550
Wire Wire Line
	6600 3850 6600 4550
Wire Wire Line
	5750 3850 6600 3850
Wire Wire Line
	5750 3650 7400 3650
Wire Wire Line
	7400 3650 7400 4550
Wire Wire Line
	6950 3550 6950 3600
Wire Wire Line
	6950 3600 7600 3600
Wire Wire Line
	7600 3600 7600 4550
Wire Wire Line
	5750 3550 6950 3550
$Comp
L Switch:SW_Push Program1
U 1 1 5BAD2435
P 9250 3300
F 0 "Program1" V 9296 3252 50  0000 R CNN
F 1 "SW_Push" V 9205 3252 50  0000 R CNN
F 2 "Button_Switch_THT:SW_PUSH_6mm" H 9250 3500 50  0001 C CNN
F 3 "" H 9250 3500 50  0001 C CNN
	1    9250 3300
	0    -1   -1   0   
$EndComp
$Comp
L power:GND #PWR0111
U 1 1 5BAD257A
P 9250 3500
F 0 "#PWR0111" H 9250 3250 50  0001 C CNN
F 1 "GND" H 9255 3327 50  0000 C CNN
F 2 "" H 9250 3500 50  0001 C CNN
F 3 "" H 9250 3500 50  0001 C CNN
	1    9250 3500
	1    0    0    -1  
$EndComp
$Comp
L Device:R R1
U 1 1 5BAD2677
P 9250 2800
F 0 "R1" H 9320 2846 50  0000 L CNN
F 1 "R" H 9320 2755 50  0000 L CNN
F 2 "Resistor_SMD:R_1206_3216Metric_Pad1.42x1.75mm_HandSolder" V 9180 2800 50  0001 C CNN
F 3 "~" H 9250 2800 50  0001 C CNN
	1    9250 2800
	1    0    0    -1  
$EndComp
Wire Wire Line
	5750 3150 7600 3150
Wire Wire Line
	7600 3150 7600 3050
Wire Wire Line
	7600 3050 9250 3050
Wire Wire Line
	9250 3100 9250 3050
Wire Wire Line
	9250 3050 9250 2950
Connection ~ 9250 3050
$Comp
L power:+3.3V #PWR0112
U 1 1 5BAD444F
P 9250 2650
F 0 "#PWR0112" H 9250 2500 50  0001 C CNN
F 1 "+3.3V" H 9265 2823 50  0000 C CNN
F 2 "" H 9250 2650 50  0001 C CNN
F 3 "" H 9250 2650 50  0001 C CNN
	1    9250 2650
	1    0    0    -1  
$EndComp
Wire Wire Line
	3700 5750 3800 5750
Connection ~ 3800 5750
$Comp
L Device:R R3
U 1 1 5BAD75B4
P 7450 5700
F 0 "R3" V 7243 5700 50  0000 C CNN
F 1 "R" V 7334 5700 50  0000 C CNN
F 2 "Resistor_SMD:R_1206_3216Metric_Pad1.42x1.75mm_HandSolder" V 7380 5700 50  0001 C CNN
F 3 "~" H 7450 5700 50  0001 C CNN
	1    7450 5700
	0    1    1    0   
$EndComp
$Comp
L Device:R R2
U 1 1 5BAD7601
P 7150 5700
F 0 "R2" V 6943 5700 50  0000 C CNN
F 1 "R" V 7034 5700 50  0000 C CNN
F 2 "Resistor_SMD:R_1206_3216Metric_Pad1.42x1.75mm_HandSolder" V 7080 5700 50  0001 C CNN
F 3 "~" H 7150 5700 50  0001 C CNN
	1    7150 5700
	0    1    1    0   
$EndComp
Connection ~ 7300 5700
$EndSCHEMATC
